{
  "type": "service_account",
  "project_id": "bold-impulse-244108",
  "private_key_id": "30b9868dd343a05de492c27e94750784dde02c6c",
  "private_key": "-----BEGIN PRIVATE KEY-----\nMIIEvgIBADANBgkqhkiG9w0BAQEFAASCBKgwggSkAgEAAoIBAQC05Rk6yw2rDAFy\nXaaqL1X2ZGYexDamXhT631Q2o4vgp+UpmkdPO13blLODABT51/2kBeG0I7Cb4fqI\nPQlQhsQm8Y09HtvEvvLlqrqEOORgh8Wk5+uzV3BLlwIv7ciEj8kWBD8f37+9uOZk\n6kLDMLbnQfqvypMS0liUfZWwRAxqvbN1TE5RPE/VeOyeewTBlJnXvqg2Tqkw50jq\nbqpdNxjatUrby0Js6+pXODtx7O2LxqddK1MWjiJpQUfzthXUOYfpCY4z9o3HUwAS\nBpMU2nwztsipUdGkr6XOdKStOHfSFFWsz6/BWNRMWK24SFG8ikRXng19pPQ9pjIZ\navLyyN6VAgMBAAECggEADYQXqj+tPgRH4GR0dT9TsDUIt1BIWA5sCWGh8HIwW6EX\n24+qN9aS+PrnnchmCNP1YOnKlzPaeI8+MatD1Kc5JULDn5c8avsseXIT/RimIbtL\nTnrArvX/zzoRgQTGiHcY2oMHN2m3sSSNXGlvgxeS9v0ETtm3Ov8J/NBUXKb8+YWi\nYK/LxTX0lQxvsI8JPTICRIzMGcPY0AwORtQOFU6vzr5WdbJ21GIWANbbN1DDHrM/\nfKwDP6bRJLDNYiWqwVqK6xPO0QW+i5WXG9iEn96IK4z/VLD4K9ohaGnEZwnxwt1m\nklHRNiBudKPdZCJNjrkDblFniRb5iW5seujZ2/raUQKBgQDgpVTHLOnYbBd7O0zy\nW8QXIeuqaWYlCRVmegTxYquxkrWx7RO4hcUFHiIjwD9/oInGALV83LkB0kXXubvz\nquESaCcRwuGjNgwoURSVViAVRQQh618Uw4o+1TB/GlY5Pz403vDo2a02ViUVn2mG\n7qQtwiHtPi5+Zc5P8nNNRXR68QKBgQDOJIh5qp3WmXa8APKqrQ7/6rBBv17fhQc0\nsaqr5yXUz4M2soVgAkNoIoxOjW+PU9fTwnUv/pH4yqMiYoRrAxMLLHD+IUzGAcMg\nm86cz8AByxLaGMgE/tM7NqIdqd5fhQoLioAwQ6lxcSIeOG/e/vWey0oGDl8mbBw3\nqgcsWFM15QKBgBj5iIFUNvM+oSWsJBPVq+k+dirN6PM5HU31RtNnOttVCiorx0N+\na7bz8Ku01dpkiKygq4ykJVVUgTtIhOLEHp2jQqSw29D/Uz6wNO+dUZfLwnfa6Qkv\n7BCsNuYKkYdvxoSuPG5GtQETdq/+twavRUVpDciIXzbiLpuowrTWgeqhAoGBALK3\ntaJVqzXMIsZnw/r4wpJY86pssWHzwQWMKr2STpgruESJjVxpWetEWIQZ1uhZ9jne\n0x5jBEa/16MN6mOkbLQ5OVT5pcfc60CwE/abnolvd86hwXejPZqOiQpSpToG62iK\nEQzG/HYfcUbmAwc/385lzK1ndFKpU+VmgYWOpcWJAoGBAKBDYLsG/RbEEOaoeGvc\nchGbDjWiGnXaRQeE8jTapr0MBMs4ohyHIwDL0fATYpD6r6cyra5CouZPy4Gra7BK\nCyFF84p8MKs12yJv8pgDsYCVy2cFX9lRU6WJn3OBRdTPFC7T1+MOyAPZ96fhlX3J\nMybP+JnWuD5c+NO7ERAbBN6Q\n-----END PRIVATE KEY-----\n",
  "client_email": "firebase-adminsdk-gscb0@bold-impulse-244108.iam.gserviceaccount.com",
  "client_id": "106478537803612709342",
  "auth_uri": "https://accounts.google.com/o/oauth2/auth",
  "token_uri": "https://oauth2.googleapis.com/token",
  "auth_provider_x509_cert_url": "https://www.googleapis.com/oauth2/v1/certs",
  "client_x509_cert_url": "https://www.googleapis.com/robot/v1/metadata/x509/firebase-adminsdk-gscb0%40bold-impulse-244108.iam.gserviceaccount.com"
}
